iPAS vignette • iPAS
…
Pathway enrichment with iPAS

The iPAS_enrich function performs pathway enrichment for each sample (this may take a few minutes). The function scores the differential expression from the input sample by its similarity to the iPAS signature for each pathway. By default, we use Pearson correlation for the similarity, but cosine similarity and the dot product between the two are given as options.

The significance of the pathway score is established via a permutation test. We permute the input signature n times (n=1000 by default) and calculate a null distribution of n pathway scores. We use the null distribution of scores to calculate an empirical p-value and a z-score.

Here we set the number of permutations to 100 to run the example quickly.

Review results

You may view the pathway scores as a table.

res$example_1$ensemble

## # A tibble: 181 x 23
##    pathway cell_line  score z_score p_emp direction gene_scores query_scaled
##    <chr>   <chr>      <dbl>   <dbl> <dbl> <chr>     <list>      <list>      
##  1 hsa054… ensemble   0.911    2.26  0    Positive  <NULL>      <NULL>      
##  2 hsa030… ensemble  -1.08    -1.85  0.01 Negative  <NULL>      <NULL>      
##  3 hsa049… ensemble  -0.513   -1.69  0.01 Negative  <NULL>      <NULL>      
##  4 hsa046… ensemble   1.26     1.61  0.04 Positive  <NULL>      <NULL>      
##  5 hsa045… ensemble  -0.22    -1.68  0.05 Negative  <NULL>      <NULL>      
##  6 hsa049… ensemble  -0.271   -1.63  0.06 Negative  <NULL>      <NULL>      
##  7 hsa052… ensemble  -0.656   -1.53  0.06 Negative  <NULL>      <NULL>      
##  8 hsa052… ensemble   1.05     1.58  0.07 Positive  <NULL>      <NULL>      
##  9 hsa047… ensemble  -0.378   -1.56  0.08 Negative  <NULL>      <NULL>      
## 10 hsa047… ensemble  -0.707   -1.38  0.08 Negative  <NULL>      <NULL>      
## # … with 171 more rows, and 15 more variables: pas_scaled <list>,
## #   ens_weight <dbl>, score_type <chr>, overlap <list>, null_dist <list>,
## #   gene_scores_ens <list>, pathway_desc <chr>, size <int>, num_comps <int>,
## #   largest_comp <dbl>, path_nodes <named list>, path_nodes_list <named list>,
## #   Category_Lv1 <chr>, Category_Lv2 <chr>, Category_New <chr>
…
